\relax 
\providecommand\hyper@newdestlabel[2]{}
\providecommand\HyperFirstAtBeginDocument{\AtBeginDocument}
\HyperFirstAtBeginDocument{\ifx\hyper@anchor\@undefined
\global\let\oldcontentsline\contentsline
\gdef\contentsline#1#2#3#4{\oldcontentsline{#1}{#2}{#3}}
\global\let\oldnewlabel\newlabel
\gdef\newlabel#1#2{\newlabelxx{#1}#2}
\gdef\newlabelxx#1#2#3#4#5#6{\oldnewlabel{#1}{{#2}{#3}}}
\AtEndDocument{\ifx\hyper@anchor\@undefined
\let\contentsline\oldcontentsline
\let\newlabel\oldnewlabel
\fi}
\fi}
\global\let\hyper@last\relax 
\gdef\HyperFirstAtBeginDocument#1{#1}
\providecommand\HyField@AuxAddToFields[1]{}
\providecommand\HyField@AuxAddToCoFields[2]{}
\@writefile{nav}{\headcommand {\slideentry {0}{0}{1}{1/1}{}{0}}}
\@writefile{nav}{\headcommand {\beamer@framepages {1}{1}}}
\@writefile{nav}{\headcommand {\slideentry {0}{0}{2}{2/2}{}{0}}}
\@writefile{nav}{\headcommand {\beamer@framepages {2}{2}}}
\@writefile{toc}{\beamer@sectionintoc {1}{Introduction}{3}{0}{1}}
\@writefile{nav}{\headcommand {\beamer@sectionpages {1}{2}}}
\@writefile{nav}{\headcommand {\beamer@subsectionpages {1}{2}}}
\@writefile{nav}{\headcommand {\sectionentry {1}{Introduction}{3}{Introduction}{0}}}
\@writefile{nav}{\headcommand {\slideentry {1}{0}{1}{3/3}{}{0}}}
\@writefile{nav}{\headcommand {\beamer@framepages {3}{3}}}
\@writefile{nav}{\headcommand {\slideentry {1}{0}{2}{4/5}{}{0}}}
\@writefile{nav}{\headcommand {\beamer@framepages {4}{5}}}
\@writefile{toc}{\beamer@sectionintoc {2}{Related Work}{6}{0}{2}}
\@writefile{nav}{\headcommand {\beamer@sectionpages {3}{5}}}
\@writefile{nav}{\headcommand {\beamer@subsectionpages {3}{5}}}
\@writefile{nav}{\headcommand {\sectionentry {2}{Related Work}{6}{Related Work}{0}}}
\@writefile{nav}{\headcommand {\slideentry {2}{0}{1}{6/6}{}{0}}}
\@writefile{nav}{\headcommand {\beamer@framepages {6}{6}}}
\@writefile{nav}{\headcommand {\slideentry {2}{0}{2}{7/7}{}{0}}}
\@writefile{nav}{\headcommand {\beamer@framepages {7}{7}}}
\@writefile{toc}{\beamer@sectionintoc {3}{Proposed Solution}{8}{0}{3}}
\@writefile{nav}{\headcommand {\beamer@sectionpages {6}{7}}}
\@writefile{nav}{\headcommand {\beamer@subsectionpages {6}{7}}}
\@writefile{nav}{\headcommand {\sectionentry {3}{Proposed Solution}{8}{Proposed Solution}{0}}}
\@writefile{nav}{\headcommand {\slideentry {3}{0}{1}{8/14}{}{0}}}
\@writefile{nav}{\headcommand {\beamer@framepages {8}{14}}}
\@writefile{toc}{\beamer@sectionintoc {4}{Data}{15}{0}{4}}
\@writefile{nav}{\headcommand {\beamer@sectionpages {8}{14}}}
\@writefile{nav}{\headcommand {\beamer@subsectionpages {8}{14}}}
\@writefile{nav}{\headcommand {\sectionentry {4}{Data}{15}{Data}{0}}}
\@writefile{nav}{\headcommand {\slideentry {4}{0}{1}{15/15}{}{0}}}
\@writefile{nav}{\headcommand {\beamer@framepages {15}{15}}}
\@writefile{toc}{\beamer@sectionintoc {5}{Results}{16}{0}{5}}
\@writefile{nav}{\headcommand {\beamer@sectionpages {15}{15}}}
\@writefile{nav}{\headcommand {\beamer@subsectionpages {15}{15}}}
\@writefile{nav}{\headcommand {\sectionentry {5}{Results}{16}{Results}{0}}}
\@writefile{toc}{\beamer@subsectionintoc {5}{1}{Face Detection}{16}{0}{5}}
\@writefile{nav}{\headcommand {\beamer@subsectionpages {16}{15}}}
\@writefile{nav}{\headcommand {\beamer@subsectionentry {0}{5}{1}{16}{Face Detection}}}
\providecommand*\caption@xref[2]{\@setref\relax\@undefined{#1}}
\newlabel{tab:detect_comp}{{1}{16}{Comparison of different face detection algorithms in four videos\relax }{Doc-Start}{}}
\@writefile{snm}{\beamer@slide {tab:detect_comp}{16}}
\@writefile{nav}{\headcommand {\slideentry {5}{1}{1}{16/16}{Face Detection}{0}}}
\@writefile{nav}{\headcommand {\beamer@framepages {16}{16}}}
\@writefile{nav}{\headcommand {\slideentry {5}{1}{2}{17/17}{Face Detection}{0}}}
\@writefile{nav}{\headcommand {\beamer@framepages {17}{17}}}
\@writefile{nav}{\headcommand {\slideentry {5}{1}{3}{18/18}{Face Detection}{0}}}
\@writefile{nav}{\headcommand {\beamer@framepages {18}{18}}}
\@writefile{nav}{\headcommand {\slideentry {5}{1}{4}{19/19}{Face Detection}{0}}}
\@writefile{nav}{\headcommand {\beamer@framepages {19}{19}}}
\@writefile{nav}{\headcommand {\slideentry {5}{1}{5}{20/20}{Face Detection}{0}}}
\@writefile{nav}{\headcommand {\beamer@framepages {20}{20}}}
\@writefile{toc}{\beamer@subsectionintoc {5}{2}{Image Comparison}{21}{0}{5}}
\@writefile{nav}{\headcommand {\beamer@subsectionpages {16}{20}}}
\@writefile{nav}{\headcommand {\beamer@subsectionentry {0}{5}{2}{21}{Image Comparison}}}
\@writefile{nav}{\headcommand {\slideentry {5}{2}{1}{21/21}{Image Comparison}{0}}}
\@writefile{nav}{\headcommand {\beamer@framepages {21}{21}}}
\@writefile{nav}{\headcommand {\slideentry {5}{2}{2}{22/22}{Image Comparison}{0}}}
\@writefile{nav}{\headcommand {\beamer@framepages {22}{22}}}
\@writefile{toc}{\beamer@subsectionintoc {5}{3}{People Count}{23}{0}{5}}
\@writefile{nav}{\headcommand {\beamer@subsectionpages {21}{22}}}
\@writefile{nav}{\headcommand {\beamer@subsectionentry {0}{5}{3}{23}{People Count}}}
\newlabel{tab:count_people_hist}{{2}{23}{The amount of distinct faces saved for several histogram methods and vector sizes. We use the DNN with confidence 0.4 for detection. All of the tested algorithms had at least one face of each person in the video in the output.\relax }{Doc-Start}{}}
\@writefile{snm}{\beamer@slide {tab:count_people_hist}{23}}
\@writefile{nav}{\headcommand {\slideentry {5}{3}{1}{23/23}{People Count}{0}}}
\@writefile{nav}{\headcommand {\beamer@framepages {23}{23}}}
\newlabel{tab:count_people_detect}{{3}{24}{The amount of distinct faces saved for different face detection methods. We use the Bhattacharyya distance as comparison method, with confidence 0.28 and vectsize is equal to 20.\relax }{Doc-Start}{}}
\@writefile{snm}{\beamer@slide {tab:count_people_detect}{24}}
\@writefile{nav}{\headcommand {\slideentry {5}{3}{2}{24/24}{People Count}{0}}}
\@writefile{nav}{\headcommand {\beamer@framepages {24}{24}}}
\@writefile{nav}{\headcommand {\slideentry {5}{3}{3}{25/25}{People Count}{0}}}
\@writefile{nav}{\headcommand {\beamer@framepages {25}{25}}}
\@writefile{toc}{\beamer@subsectionintoc {5}{4}{Software Output}{26}{0}{5}}
\@writefile{nav}{\headcommand {\beamer@subsectionpages {23}{25}}}
\@writefile{nav}{\headcommand {\beamer@subsectionentry {0}{5}{4}{26}{Software Output}}}
\@writefile{nav}{\headcommand {\slideentry {5}{4}{1}{26/26}{Software Output}{0}}}
\@writefile{nav}{\headcommand {\beamer@framepages {26}{26}}}
\@writefile{nav}{\headcommand {\slideentry {5}{4}{2}{27/27}{Software Output}{0}}}
\@writefile{nav}{\headcommand {\beamer@framepages {27}{27}}}
\@writefile{nav}{\headcommand {\slideentry {5}{4}{3}{28/28}{Software Output}{0}}}
\@writefile{nav}{\headcommand {\beamer@framepages {28}{28}}}
\@writefile{nav}{\headcommand {\slideentry {5}{4}{4}{29/29}{Software Output}{0}}}
\@writefile{nav}{\headcommand {\beamer@framepages {29}{29}}}
\@writefile{nav}{\headcommand {\slideentry {5}{4}{5}{30/30}{Software Output}{0}}}
\@writefile{nav}{\headcommand {\beamer@framepages {30}{30}}}
\@writefile{nav}{\headcommand {\slideentry {5}{4}{6}{31/31}{Software Output}{0}}}
\@writefile{nav}{\headcommand {\beamer@framepages {31}{31}}}
\@writefile{nav}{\headcommand {\slideentry {5}{4}{7}{32/32}{Software Output}{0}}}
\@writefile{nav}{\headcommand {\beamer@framepages {32}{32}}}
\@writefile{nav}{\headcommand {\slideentry {5}{4}{8}{33/33}{Software Output}{0}}}
\@writefile{nav}{\headcommand {\beamer@framepages {33}{33}}}
\@writefile{nav}{\headcommand {\slideentry {5}{4}{9}{34/34}{Software Output}{0}}}
\@writefile{nav}{\headcommand {\beamer@framepages {34}{34}}}
\@writefile{nav}{\headcommand {\slideentry {5}{4}{10}{35/35}{Software Output}{0}}}
\@writefile{nav}{\headcommand {\beamer@framepages {35}{35}}}
\@writefile{nav}{\headcommand {\slideentry {5}{4}{11}{36/36}{Software Output}{0}}}
\@writefile{nav}{\headcommand {\beamer@framepages {36}{36}}}
\@writefile{nav}{\headcommand {\slideentry {5}{4}{12}{37/37}{Software Output}{0}}}
\@writefile{nav}{\headcommand {\beamer@framepages {37}{37}}}
\@writefile{nav}{\headcommand {\slideentry {5}{4}{13}{38/38}{Software Output}{0}}}
\@writefile{nav}{\headcommand {\beamer@framepages {38}{38}}}
\@writefile{nav}{\headcommand {\slideentry {5}{4}{14}{39/39}{Software Output}{0}}}
\@writefile{nav}{\headcommand {\beamer@framepages {39}{39}}}
\@writefile{nav}{\headcommand {\slideentry {5}{4}{15}{40/40}{Software Output}{0}}}
\@writefile{nav}{\headcommand {\beamer@framepages {40}{40}}}
\@writefile{nav}{\headcommand {\slideentry {5}{4}{16}{41/41}{Software Output}{0}}}
\@writefile{nav}{\headcommand {\beamer@framepages {41}{41}}}
\@writefile{nav}{\headcommand {\slideentry {5}{4}{17}{42/42}{Software Output}{0}}}
\@writefile{nav}{\headcommand {\beamer@framepages {42}{42}}}
\@writefile{nav}{\headcommand {\slideentry {5}{4}{18}{43/43}{Software Output}{0}}}
\@writefile{nav}{\headcommand {\beamer@framepages {43}{43}}}
\@writefile{nav}{\headcommand {\slideentry {5}{4}{19}{44/44}{Software Output}{0}}}
\@writefile{nav}{\headcommand {\beamer@framepages {44}{44}}}
\@writefile{nav}{\headcommand {\slideentry {5}{4}{20}{45/45}{Software Output}{0}}}
\@writefile{nav}{\headcommand {\beamer@framepages {45}{45}}}
\@writefile{nav}{\headcommand {\slideentry {5}{4}{21}{46/46}{Software Output}{0}}}
\@writefile{nav}{\headcommand {\beamer@framepages {46}{46}}}
\@writefile{nav}{\headcommand {\slideentry {5}{4}{22}{47/47}{Software Output}{0}}}
\@writefile{nav}{\headcommand {\beamer@framepages {47}{47}}}
\@writefile{nav}{\headcommand {\slideentry {5}{4}{23}{48/48}{Software Output}{0}}}
\@writefile{nav}{\headcommand {\beamer@framepages {48}{48}}}
\@writefile{nav}{\headcommand {\slideentry {5}{4}{24}{49/49}{Software Output}{0}}}
\@writefile{nav}{\headcommand {\beamer@framepages {49}{49}}}
\@writefile{nav}{\headcommand {\slideentry {5}{4}{25}{50/50}{Software Output}{0}}}
\@writefile{nav}{\headcommand {\beamer@framepages {50}{50}}}
\@writefile{nav}{\headcommand {\slideentry {5}{4}{26}{51/51}{Software Output}{0}}}
\@writefile{nav}{\headcommand {\beamer@framepages {51}{51}}}
\@writefile{nav}{\headcommand {\slideentry {5}{4}{27}{52/52}{Software Output}{0}}}
\@writefile{nav}{\headcommand {\beamer@framepages {52}{52}}}
\@writefile{nav}{\headcommand {\slideentry {5}{4}{28}{53/53}{Software Output}{0}}}
\@writefile{nav}{\headcommand {\beamer@framepages {53}{53}}}
\@writefile{nav}{\headcommand {\slideentry {5}{4}{29}{54/54}{Software Output}{0}}}
\@writefile{nav}{\headcommand {\beamer@framepages {54}{54}}}
\@writefile{nav}{\headcommand {\slideentry {5}{4}{30}{55/55}{Software Output}{0}}}
\@writefile{nav}{\headcommand {\beamer@framepages {55}{55}}}
\@writefile{nav}{\headcommand {\slideentry {5}{4}{31}{56/56}{Software Output}{0}}}
\@writefile{nav}{\headcommand {\beamer@framepages {56}{56}}}
\@writefile{nav}{\headcommand {\slideentry {5}{4}{32}{57/57}{Software Output}{0}}}
\@writefile{nav}{\headcommand {\beamer@framepages {57}{57}}}
\@writefile{nav}{\headcommand {\slideentry {5}{4}{33}{58/58}{Software Output}{0}}}
\@writefile{nav}{\headcommand {\beamer@framepages {58}{58}}}
\@writefile{nav}{\headcommand {\slideentry {5}{4}{34}{59/59}{Software Output}{0}}}
\@writefile{nav}{\headcommand {\beamer@framepages {59}{59}}}
\@writefile{nav}{\headcommand {\slideentry {5}{4}{35}{60/60}{Software Output}{0}}}
\@writefile{nav}{\headcommand {\beamer@framepages {60}{60}}}
\@writefile{nav}{\headcommand {\slideentry {5}{4}{36}{61/61}{Software Output}{0}}}
\@writefile{nav}{\headcommand {\beamer@framepages {61}{61}}}
\@writefile{nav}{\headcommand {\slideentry {5}{4}{37}{62/62}{Software Output}{0}}}
\@writefile{nav}{\headcommand {\beamer@framepages {62}{62}}}
\@writefile{nav}{\headcommand {\slideentry {5}{4}{38}{63/63}{Software Output}{0}}}
\@writefile{nav}{\headcommand {\beamer@framepages {63}{63}}}
\@writefile{nav}{\headcommand {\slideentry {5}{4}{39}{64/64}{Software Output}{0}}}
\@writefile{nav}{\headcommand {\beamer@framepages {64}{64}}}
\@writefile{nav}{\headcommand {\slideentry {5}{4}{40}{65/65}{Software Output}{0}}}
\@writefile{nav}{\headcommand {\beamer@framepages {65}{65}}}
\@writefile{nav}{\headcommand {\slideentry {5}{4}{41}{66/66}{Software Output}{0}}}
\@writefile{nav}{\headcommand {\beamer@framepages {66}{66}}}
\@writefile{nav}{\headcommand {\slideentry {5}{4}{42}{67/67}{Software Output}{0}}}
\@writefile{nav}{\headcommand {\beamer@framepages {67}{67}}}
\@writefile{nav}{\headcommand {\slideentry {5}{4}{43}{68/68}{Software Output}{0}}}
\@writefile{nav}{\headcommand {\beamer@framepages {68}{68}}}
\@writefile{nav}{\headcommand {\slideentry {5}{4}{44}{69/69}{Software Output}{0}}}
\@writefile{nav}{\headcommand {\beamer@framepages {69}{69}}}
\@writefile{nav}{\headcommand {\slideentry {5}{4}{45}{70/70}{Software Output}{0}}}
\@writefile{nav}{\headcommand {\beamer@framepages {70}{70}}}
\@writefile{nav}{\headcommand {\slideentry {5}{4}{46}{71/71}{Software Output}{0}}}
\@writefile{nav}{\headcommand {\beamer@framepages {71}{71}}}
\@writefile{nav}{\headcommand {\slideentry {5}{4}{47}{72/72}{Software Output}{0}}}
\@writefile{nav}{\headcommand {\beamer@framepages {72}{72}}}
\@writefile{nav}{\headcommand {\slideentry {5}{4}{48}{73/73}{Software Output}{0}}}
\@writefile{nav}{\headcommand {\beamer@framepages {73}{73}}}
\@writefile{nav}{\headcommand {\slideentry {5}{4}{49}{74/74}{Software Output}{0}}}
\@writefile{nav}{\headcommand {\beamer@framepages {74}{74}}}
\@writefile{nav}{\headcommand {\slideentry {5}{4}{50}{75/75}{Software Output}{0}}}
\@writefile{nav}{\headcommand {\beamer@framepages {75}{75}}}
\@writefile{nav}{\headcommand {\slideentry {5}{4}{51}{76/76}{Software Output}{0}}}
\@writefile{nav}{\headcommand {\beamer@framepages {76}{76}}}
\@writefile{nav}{\headcommand {\slideentry {5}{4}{52}{77/77}{Software Output}{0}}}
\@writefile{nav}{\headcommand {\beamer@framepages {77}{77}}}
\@writefile{nav}{\headcommand {\slideentry {5}{4}{53}{78/78}{Software Output}{0}}}
\@writefile{nav}{\headcommand {\beamer@framepages {78}{78}}}
\@writefile{nav}{\headcommand {\slideentry {5}{4}{54}{79/79}{Software Output}{0}}}
\@writefile{nav}{\headcommand {\beamer@framepages {79}{79}}}
\@writefile{nav}{\headcommand {\slideentry {5}{4}{55}{80/80}{Software Output}{0}}}
\@writefile{nav}{\headcommand {\beamer@framepages {80}{80}}}
\@writefile{nav}{\headcommand {\slideentry {5}{4}{56}{81/81}{Software Output}{0}}}
\@writefile{nav}{\headcommand {\beamer@framepages {81}{81}}}
\@writefile{nav}{\headcommand {\slideentry {5}{4}{57}{82/82}{Software Output}{0}}}
\@writefile{nav}{\headcommand {\beamer@framepages {82}{82}}}
\@writefile{nav}{\headcommand {\slideentry {5}{4}{58}{83/83}{Software Output}{0}}}
\@writefile{nav}{\headcommand {\beamer@framepages {83}{83}}}
\@writefile{nav}{\headcommand {\slideentry {5}{4}{59}{84/84}{Software Output}{0}}}
\@writefile{nav}{\headcommand {\beamer@framepages {84}{84}}}
\@writefile{nav}{\headcommand {\slideentry {5}{4}{60}{85/85}{Software Output}{0}}}
\@writefile{nav}{\headcommand {\beamer@framepages {85}{85}}}
\@writefile{nav}{\headcommand {\slideentry {5}{4}{61}{86/86}{Software Output}{0}}}
\@writefile{nav}{\headcommand {\beamer@framepages {86}{86}}}
\@writefile{nav}{\headcommand {\slideentry {5}{4}{62}{87/87}{Software Output}{0}}}
\@writefile{nav}{\headcommand {\beamer@framepages {87}{87}}}
\@writefile{toc}{\beamer@sectionintoc {6}{Conclusion}{88}{0}{6}}
\@writefile{nav}{\headcommand {\beamer@sectionpages {16}{87}}}
\@writefile{nav}{\headcommand {\beamer@subsectionpages {26}{87}}}
\@writefile{nav}{\headcommand {\sectionentry {6}{Conclusion}{88}{Conclusion}{0}}}
\@writefile{nav}{\headcommand {\slideentry {6}{0}{1}{88/88}{}{0}}}
\@writefile{nav}{\headcommand {\beamer@framepages {88}{88}}}
\@writefile{nav}{\headcommand {\slideentry {6}{0}{2}{89/89}{}{0}}}
\@writefile{nav}{\headcommand {\beamer@framepages {89}{89}}}
\@writefile{nav}{\headcommand {\beamer@partpages {1}{89}}}
\@writefile{nav}{\headcommand {\beamer@subsectionpages {88}{89}}}
\@writefile{nav}{\headcommand {\beamer@sectionpages {88}{89}}}
\@writefile{nav}{\headcommand {\beamer@documentpages {89}}}
\@writefile{nav}{\headcommand {\gdef \inserttotalframenumber {81}}}
